…
    ## # A tibble: 4 × 1
    ##   mrace
    ##   <fct>
    ## 1 1    
    ## 2 2    
    ## 3 3    
    ## 4 4

``` r
birthweight_df
```

    ## # A tibble: 4,342 × 20
    ##    babysex bhead blength   bwt delwt fincome frace gaweeks malform menarche
    ##    <fct>   <dbl>   <dbl> <dbl> <dbl>   <dbl> <fct>   <dbl> <fct>      <dbl>
    ##  1 2          34      51  3629   177    3500 1        39.9 0             13
    ##  2 1          34      48  3062   156    6500 2        25.9 0             14
    ##  3 2          36      50  3345   148    8500 1        39.9 0             12
    ##  4 1          34      52  3062   157    5500 1        40   0             14
    ##  5 2          34      52  3374   156     500 1        41.6 0             13
    ##  6 1          33      52  3374   129    5500 1        40.7 0             12
    ##  7 2          33      46  2523   126    9600 2        40.3 0             14
    ##  8 2          33      49  2778   140     500 1        37.4 0             12
    ##  9 1          36      52  3515   146    8500 1        40.3 0             11
    ## 10 1          33      50  3459   169    7500 2        40.7 0             12
    ## # … with 4,332 more rows, and 10 more variables: mheight <dbl>, momage <dbl>,
    ## #   mrace <fct>, parity <dbl>, pnumlbw <dbl>, pnumsga <dbl>, ppbmi <dbl>,
    ## #   ppwt <dbl>, smoken <dbl>, wtgain <dbl>

``` r
birthweight_df %>% 
  drop_na()
```

    ## # A tibble: 4,342 × 20
    ##    babysex bhead blength   bwt delwt fincome frace gaweeks malform menarche
    ##    <fct>   <dbl>   <dbl> <dbl> <dbl>   <dbl> <fct>   <dbl> <fct>      <dbl>
    ##  1 2          34      51  3629   177    3500 1        39.9 0             13
    ##  2 1          34      48  3062   156    6500 2        25.9 0             14
    ##  3 2          36      50  3345   148    8500 1        39.9 0             12
    ##  4 1          34      52  3062   157    5500 1        40   0             14
    ##  5 2          34      52  3374   156     500 1        41.6 0             13
    ##  6 1          33      52  3374   129    5500 1        40.7 0             12
    ##  7 2          33      46  2523   126    9600 2        40.3 0             14
    ##  8 2          33      49  2778   140     500 1        37.4 0             12
    ##  9 1          36      52  3515   146    8500 1        40.3 0             11
    ## 10 1          33      50  3459   169    7500 2        40.7 0             12
    ## # … with 4,332 more rows, and 10 more variables: mheight <dbl>, momage <dbl>,
    ## #   mrace <fct>, parity <dbl>, pnumlbw <dbl>, pnumsga <dbl>, ppbmi <dbl>,
    ## #   ppwt <dbl>, smoken <dbl>, wtgain <dbl>
…
